…
is printed.

You may ask why this is useful? It is useful because it enables
you to chain together a lot of functions. For example, the 
tidyverse [dply](https://dplyr.tidyverse.org) package
provides the function `filter`, for filtering data.

So;

```R
cats |> filter(Sex == "F")
```

```
# A tibble: 47 x 3
   Sex   BodyWeight HeartWeight
   <chr>      <dbl>       <dbl>
 1 F            2           7  
 2 F            2           7.4
 3 F            2           9.5
 4 F            2.1         7.2
 5 F            2.1         7.3
 6 F            2.1         7.6
 7 F            2.1         8.1
 8 F            2.1         8.2
 9 F            2.1         8.3
10 F            2.1         8.5
# … with 37 more rows
```
…
